{
    "project_info": {
        "project_number": "108429024130",
        "firebase_url": "https://smartz-534af.firebaseio.com",
        "project_id": "smartz-534af",
        "storage_bucket": "smartz-534af.appspot.com"
    },
    "client": [{
        "client_info": {
            "mobilesdk_app_id": "1:108429024130:android:764d2cb7da3280eb",
            "android_client_info": {
                "package_name": "io.ionic.starter"
            }
        },
        "oauth_client": [{
                "client_id": "108429024130-9eec10o5n079pshsjj27g9e97fvqmfki.apps.googleusercontent.com",
                "client_type": 1,
                "android_info": {
                    "package_name": "io.ionic.starter",
                    "certificate_hash": "ab8180593e45ef2abe8b71d7cc96fdbae35fe584"
                }
            },
            {
                "client_id": "108429024130-qp3aplg5b4jgcktdrd674h4dsau7ad81.apps.googleusercontent.com",
                "client_type": 3
            }
        ],
        "api_key": [{
            "current_key": "AIzaSyCKqv4ThWMrr-AAC5eE2w1vsRvQXKDgBeA"
        }],
        "services": {
            "analytics_service": {
                "status": 1
            },
            "appinvite_service": {
                "status": 2,
                "other_platform_oauth_client": [{
                    "client_id": "108429024130-qp3aplg5b4jgcktdrd674h4dsau7ad81.apps.googleusercontent.com",
                    "client_type": 3
                }]
            },
            "ads_service": {
                "status": 2
            }
        }
    }],
    "configuration_version": "1"
}