<?xml version="1.0" encoding="UTF-8" standalone="no"?>
<!-- Created with Inkscape (http://www.inkscape.org/) -->

<svg
   xmlns:dc="http://purl.org/dc/elements/1.1/"
   xmlns:cc="http://creativecommons.org/ns#"
   xmlns:rdf="http://www.w3.org/1999/02/22-rdf-syntax-ns#"
   xmlns:svg="http://www.w3.org/2000/svg"
   xmlns="http://www.w3.org/2000/svg"
   xmlns:sodipodi="http://sodipodi.sourceforge.net/DTD/sodipodi-0.dtd"
   xmlns:inkscape="http://www.inkscape.org/namespaces/inkscape"
   width="160mm"
   height="160mm"
   viewBox="0 0 160 160"
   version="1.1"
   id="svg8"
   inkscape:version="0.92.2 (5c3e80d, 2017-08-06)"
   sodipodi:docname="tempAire.svg">
  <defs
     id="defs2" />
  <sodipodi:namedview
     id="base"
     pagecolor="#ffffff"
     bordercolor="#666666"
     borderopacity="1.0"
     inkscape:pageopacity="0.0"
     inkscape:pageshadow="2"
     inkscape:zoom="0.35"
     inkscape:cx="47.142857"
     inkscape:cy="560"
     inkscape:document-units="mm"
     inkscape:current-layer="layer1"
     showgrid="false"
     inkscape:window-width="1366"
     inkscape:window-height="705"
     inkscape:window-x="-8"
     inkscape:window-y="-8"
     inkscape:window-maximized="1" />
  <metadata
     id="metadata5">
    <rdf:RDF>
      <cc:Work
         rdf:about="">
        <dc:format>image/svg+xml</dc:format>
        <dc:type
           rdf:resource="http://purl.org/dc/dcmitype/StillImage" />
        <dc:title></dc:title>
      </cc:Work>
    </rdf:RDF>
  </metadata>
  <g
     inkscape:label="Layer 1"
     inkscape:groupmode="layer"
     id="layer1"
     transform="translate(0,-137)">
    <g
       id="g171"
       transform="matrix(-0.1956186,-0.15071472,0.15071472,-0.1956186,59.023233,270.57731)">
      <path
         id="path94"
         d="M 96,368 V 40 C 96,22.328125 81.671875,8 64,8 46.328125,8 32,22.328125 32,40 v 328 c -15.109375,11.33203 -24,29.11328 -24,48 0,30.92969 25.070312,56 56,56 30.929688,0 56,-25.07031 56,-56 0,-18.88672 -8.89063,-36.66797 -24,-48 z m 0,0"
         inkscape:connector-curvature="0"
         style="fill:#a3d4f7" />
      <g
         id="g114"
         style="fill:#92aeba">
        <path
           id="path96"
           d="m 176,344 h -48 c -4.41797,0 -8,-3.58203 -8,-8 0,-4.41797 3.58203,-8 8,-8 h 48 c 4.41797,0 8,3.58203 8,8 0,4.41797 -3.58203,8 -8,8 z m 0,0"
           inkscape:connector-curvature="0" />
        <path
           id="path98"
           d="m 160,312 h -32 c -4.41797,0 -8,-3.58203 -8,-8 0,-4.41797 3.58203,-8 8,-8 h 32 c 4.41797,0 8,3.58203 8,8 0,4.41797 -3.58203,8 -8,8 z m 0,0"
           inkscape:connector-curvature="0" />
        <path
           id="path100"
           d="m 176,280 h -48 c -4.41797,0 -8,-3.58203 -8,-8 0,-4.41797 3.58203,-8 8,-8 h 48 c 4.41797,0 8,3.58203 8,8 0,4.41797 -3.58203,8 -8,8 z m 0,0"
           inkscape:connector-curvature="0" />
        <path
           id="path102"
           d="m 160,248 h -32 c -4.41797,0 -8,-3.58203 -8,-8 0,-4.41797 3.58203,-8 8,-8 h 32 c 4.41797,0 8,3.58203 8,8 0,4.41797 -3.58203,8 -8,8 z m 0,0"
           inkscape:connector-curvature="0" />
        <path
           id="path104"
           d="m 176,216 h -48 c -4.41797,0 -8,-3.58203 -8,-8 0,-4.41797 3.58203,-8 8,-8 h 48 c 4.41797,0 8,3.58203 8,8 0,4.41797 -3.58203,8 -8,8 z m 0,0"
           inkscape:connector-curvature="0" />
        <path
           id="path106"
           d="m 160,184 h -32 c -4.41797,0 -8,-3.58203 -8,-8 0,-4.41797 3.58203,-8 8,-8 h 32 c 4.41797,0 8,3.58203 8,8 0,4.41797 -3.58203,8 -8,8 z m 0,0"
           inkscape:connector-curvature="0" />
        <path
           id="path108"
           d="m 176,152 h -48 c -4.41797,0 -8,-3.58203 -8,-8 0,-4.41797 3.58203,-8 8,-8 h 48 c 4.41797,0 8,3.58203 8,8 0,4.41797 -3.58203,8 -8,8 z m 0,0"
           inkscape:connector-curvature="0" />
        <path
           id="path110"
           d="m 160,120 h -32 c -4.41797,0 -8,-3.58203 -8,-8 0,-4.41797 3.58203,-8 8,-8 h 32 c 4.41797,0 8,3.58203 8,8 0,4.41797 -3.58203,8 -8,8 z m 0,0"
           inkscape:connector-curvature="0" />
        <path
           id="path112"
           d="m 176,88 h -48 c -4.41797,0 -8,-3.582031 -8,-8 0,-4.417969 3.58203,-8 8,-8 h 48 c 4.41797,0 8,3.582031 8,8 0,4.417969 -3.58203,8 -8,8 z m 0,0"
           inkscape:connector-curvature="0" />
      </g>
      <path
         id="path116"
         d="M 72,385.01563 V 200 c 0,-4.41797 -3.582031,-8 -8,-8 -4.417969,0 -8,3.58203 -8,8 v 185.01563 c -14.175781,3.05078 -24.222656,15.6875 -24,30.18359 0,17.67578 14.328125,32 32,32 17.671875,0 32,-14.32422 32,-32 0.222656,-14.49609 -9.824219,-27.13281 -24,-30.18359 z m 0,0"
         inkscape:connector-curvature="0"
         style="fill:#ff5b42" />
      <path
         id="path118"
         d="m 64,480 c 35.328125,-0.0391 63.96094,-28.67187 64,-64 0.0156,-19.98828 -8.76172,-38.97266 -24,-51.90234 V 40 C 104,17.910156 86.089844,0 64,0 41.910156,0 24,17.910156 24,40 V 364.09766 C 8.761719,377.02734 -0.015625,396.01172 0,416 c 0.0390625,35.32813 28.671875,63.96094 64,64 z M 36.441406,374.65625 40,372.25781 V 40 C 40,26.746094 50.746094,16 64,16 77.253906,16 88,26.746094 88,40 v 332.28125 l 3.558594,2.39844 C 104.46094,384.5 112.02344,399.78906 112,416 c 0,26.50781 -21.492188,48 -48,48 -26.507812,0 -48,-21.49219 -48,-48 -0.0625,-16.22656 7.507812,-31.53906 20.441406,-41.34375 z m 0,0"
         inkscape:connector-curvature="0" />
      <path
         id="path120"
         d="m 176,328 h -48 c -4.41797,0 -8,3.58203 -8,8 0,4.41797 3.58203,8 8,8 h 48 c 4.41797,0 8,-3.58203 8,-8 0,-4.41797 -3.58203,-8 -8,-8 z m 0,0"
         inkscape:connector-curvature="0" />
      <path
         id="path122"
         d="m 128,312 h 32 c 4.41797,0 8,-3.58203 8,-8 0,-4.41797 -3.58203,-8 -8,-8 h -32 c -4.41797,0 -8,3.58203 -8,8 0,4.41797 3.58203,8 8,8 z m 0,0"
         inkscape:connector-curvature="0" />
      <path
         id="path124"
         d="m 176,264 h -48 c -4.41797,0 -8,3.58203 -8,8 0,4.41797 3.58203,8 8,8 h 48 c 4.41797,0 8,-3.58203 8,-8 0,-4.41797 -3.58203,-8 -8,-8 z m 0,0"
         inkscape:connector-curvature="0" />
      <path
         id="path126"
         d="m 128,248 h 32 c 4.41797,0 8,-3.58203 8,-8 0,-4.41797 -3.58203,-8 -8,-8 h -32 c -4.41797,0 -8,3.58203 -8,8 0,4.41797 3.58203,8 8,8 z m 0,0"
         inkscape:connector-curvature="0" />
      <path
         id="path128"
         d="m 176,200 h -48 c -4.41797,0 -8,3.58203 -8,8 0,4.41797 3.58203,8 8,8 h 48 c 4.41797,0 8,-3.58203 8,-8 0,-4.41797 -3.58203,-8 -8,-8 z m 0,0"
         inkscape:connector-curvature="0" />
      <path
         id="path130"
         d="m 128,184 h 32 c 4.41797,0 8,-3.58203 8,-8 0,-4.41797 -3.58203,-8 -8,-8 h -32 c -4.41797,0 -8,3.58203 -8,8 0,4.41797 3.58203,8 8,8 z m 0,0"
         inkscape:connector-curvature="0" />
      <path
         id="path132"
         d="m 176,136 h -48 c -4.41797,0 -8,3.58203 -8,8 0,4.41797 3.58203,8 8,8 h 48 c 4.41797,0 8,-3.58203 8,-8 0,-4.41797 -3.58203,-8 -8,-8 z m 0,0"
         inkscape:connector-curvature="0" />
      <path
         id="path134"
         d="m 128,120 h 32 c 4.41797,0 8,-3.58203 8,-8 0,-4.41797 -3.58203,-8 -8,-8 h -32 c -4.41797,0 -8,3.58203 -8,8 0,4.41797 3.58203,8 8,8 z m 0,0"
         inkscape:connector-curvature="0" />
      <path
         id="path136"
         d="m 176,72 h -48 c -4.41797,0 -8,3.582031 -8,8 0,4.417969 3.58203,8 8,8 h 48 c 4.41797,0 8,-3.582031 8,-8 0,-4.417969 -3.58203,-8 -8,-8 z m 0,0"
         inkscape:connector-curvature="0" />
      <path
         id="path138"
         d="m 64,448 c 17.882812,-0.25 32.191406,-14.91797 32,-32.80078 0.207031,-14.48438 -9.835938,-27.10156 -24,-30.15234 V 200 c 0,-4.41797 -3.582031,-8 -8,-8 -4.417969,0 -8,3.58203 -8,8 V 385.01563 C 41.824219,388.06641 31.777344,400.70313 32,415.19922 31.808594,433.08203 46.117188,447.75 64,448 Z m 0,-48 c 4.175781,-0.25391 8.269531,1.23828 11.304688,4.12109 3.035156,2.88282 4.734374,6.89454 4.695312,11.07813 0,8.83594 -7.164062,16 -16,16 -8.835938,0 -16,-7.16406 -16,-16 -0.03906,-4.18359 1.660156,-8.19531 4.695312,-11.07813 C 55.730469,401.23828 59.824219,399.74609 64,400 Z m 0,0"
         inkscape:connector-curvature="0" />
    </g>
  </g>
</svg>
